[
    {
        "act": "Pengenalan 1",
        "lec": "Ali bin Abu",
        "date":"01-07-2020",
        "startTime":"0900",
        "endTime":"1100",
        "status":"1"
    },
    {
        "act": "Isi 2",
        "lec": "Abu bin Aba",
        "date":"01-07-2020",
        "startTime":"1100",
        "endTime":"1300",
        "status":"1"
    },
    {
        "act": "Isi 3",
        "lec": "Ani binti Bali",
        "date":"01-07-2020",
        "startTime":"1400",
        "endTime":"1630",
        "status":"0"
    }
]